[
    {
        "name": "Inch",
        "kind": "Length",
        "era": "Obsolete",
        "worth": 0.0254
    },
    {
        "name": "Foot",
        "kind": "Length",
        "era": "Obsolete",
        "worth": 0.3048
    },
    {
        "name": "Yard",
        "kind": "Length",
        "era": "Obsolete",
        "worth": 0.9144
    },
    {
        "name": "Rod",
        "kind": "Length",
        "era": "Obsolete",
        "worth": 5.0292
    },
    {
        "name": "Chain",
        "kind": "Length",
        "era": "Obsolete",
        "worth": 20.1168
    },
    {
        "name": "Cable",
        "kind": "Length",
        "era": "Obsolete",
        "worth": 185.2
    },
    {
        "name": "Furlong",
        "kind": "Length",
        "era": "Obsolete",
        "worth": 201.168
    },
    {
        "name": "Mile",
        "kind": "Length",
        "era": "Obsolete",
        "worth": 1609.344
    },
    {
        "name": "Nautical Mile",
        "kind": "Length",
        "era": "Obsolete",
        "worth": 1852
    },
    {
        "name": "Millimeter",
        "kind": "Length",
        "era": "Modern",
        "worth": 0.001
    },
    {
        "name": "Centimeter",
        "kind": "Length",
        "era": "Modern",
        "worth": 0.01
    },
    {
        "name": "Decimeter",
        "kind": "Length",
        "era": "Modern",
        "worth": 0.1
    },
    {
        "name": "Meter",
        "kind": "Length",
        "era": "Modern",
        "worth": 1
    },
    {
        "name": "Kilometer",
        "kind": "Length",
        "era": "Modern",
        "worth": 1000
    },
    {
        "name": "Perch",
        "kind": "Area",
        "era": "Obsolete",
        "worth": 25.592
    },
    {
        "name": "Rood",
        "kind": "Area",
        "era": "Obsolete",
        "worth": 1011.714
    },
    {
        "name": "Acre",
        "kind": "Area",
        "era": "Obsolete",
        "worth": 4046.856
    },
    {
        "name": "Square Mile",
        "kind": "Area",
        "era": "Obsolete",
        "worth": 2589988.110
    },
    {
        "name": "Square Millimeter",
        "kind": "Area",
        "era": "Modern",
        "worth": 0.000001
    },
    {
        "name": "Square Centimeter",
        "kind": "Area",
        "era": "Modern",
        "worth": 0.0001
    },
    {
        "name": "Square Decimeter",
        "kind": "Area",
        "era": "Modern",
        "worth": 0.01
    },
    {
        "name": "Square Meter",
        "kind": "Area",
        "era": "Modern",
        "worth": 1
    },
    {
        "name": "Square Kilometer",
        "kind": "Area",
        "era": "Modern",
        "worth": 1000000
    },
    {
        "name": "Ounce",
        "kind": "Liquid Volume",
        "era": "Obsolete",
        "worth": 0.028413
    },
    {
        "name": "Gill",
        "kind": "Liquid Volume",
        "era": "Obsolete",
        "worth": 0.142065
    },
    {
        "name": "Pint",
        "kind": "Liquid Volume",
        "era": "Obsolete",
        "worth": 0.568261
    },
    {
        "name": "Quart",
        "kind": "Liquid Volume",
        "era": "Obsolete",
        "worth": 1.136522
    },
    {
        "name": "Gallon",
        "kind": "Liquid Volume",
        "era": "Obsolete",
        "worth": 4.546090
    },
    {
        "name": "Milliliter",
        "kind": "Liquid Volume",
        "era": "Modern",
        "worth": 0.001
    },
    {
        "name": "Centiliter",
        "kind": "Liquid Volume",
        "era": "Modern",
        "worth": 0.01
    },
    {
        "name": "Deciliter",
        "kind": "Liquid Volume",
        "era": "Modern",
        "worth": 0.1
    },
    {
        "name": "Liter",
        "kind": "Liquid Volume",
        "era": "Modern",
        "worth": 1
    },
    {
        "name": "Hektoliter",
        "kind": "Liquid Volume",
        "era": "Modern",
        "worth": 100
    },
    {
        "name": "Peck",
        "kind": "Dry Volume",
        "era": "Obsolete",
        "worth": 0.00908741
    },
    {
        "name": "Bushel",
        "kind": "Dry Volume",
        "era": "Obsolete",
        "worth": 0.03634965
    },
    {
        "name": "Quarter",
        "kind": "Dry Volume",
        "era": "Obsolete",
        "worth": 0.29079723
    },
    {
        "name": "Qubic Centimeter",
        "kind": "Dry Volume",
        "era": "Modern",
        "worth": 0.000001
    },
    {
        "name": "Qubic Decimeter",
        "kind": "Dry Volume",
        "era": "Modern",
        "worth": 0.001
    },
    {
        "name": "Qubic Meter",
        "kind": "Dry Volume",
        "era": "Modern",
        "worth": 1
    },
    {
        "name": "Grain",
        "kind": "Weight",
        "era": "Obsolete",
        "worth": 0.064798
    },
    {
        "name": "Ounce",
        "kind": "Weight",
        "era": "Obsolete",
        "worth": 28.349523
    },
    {
        "name": "Pound",
        "kind": "Weight",
        "era": "Obsolete",
        "worth": 453.592370
    },
    {
        "name": "Stone",
        "kind": "Weight",
        "era": "Obsolete",
        "worth": 6350.293180
    },
    {
        "name": "Quarter",
        "kind": "Weight",
        "era": "Obsolete",
        "worth": 12700.586360
    },
    {
        "name": "Hundred",
        "kind": "Weight",
        "era": "Obsolete",
        "worth": 50802.345440
    },
    {
        "name": "Ton",
        "kind": "Weight",
        "era": "Obsolete",
        "worth": 1016046.9088000
    },
    {
        "name": "Gramm",
        "kind": "Weight",
        "era": "Modern",
        "worth": 1
    },
    {
        "name": "Dekagramm",
        "kind": "Weight",
        "era": "Modern",
        "worth": 10
    },
    {
        "name": "Kilogramm",
        "kind": "Weight",
        "era": "Modern",
        "worth": 10000
    },
    {
        "name": "Metric Ton",
        "kind": "Weight",
        "era": "Modern",
        "worth": 1000000
    }
]